('C:\\Users\\eladb\\PycharmProjects\\ttse27\\dist\\ttse',
 None,
 False,
 [('ttse.exe', 'C:\\Users\\eladb\\PycharmProjects\\ttse27\\build\\ttse\\ttse.exe', 'EXECUTABLE'), ('ttse.exe.manifest', 'C:\\Users\\eladb\\PycharmProjects\\ttse27\\build\\ttse\\ttse.exe.manifest', 'BINARY'), ('Microsoft.VC90.CRT.manifest', 'C:\\WINDOWS\\WinSxS\\Manifests\\x86_microsoft.vc90.crt_1fc8b3b9a1e18e3b_9.0.21022.8_none_bcb86ed6ac711f91.manifest', 'BINARY'), ('msvcr90.dll', 'C:\\WINDOWS\\WinSxS\\x86_microsoft.vc90.crt_1fc8b3b9a1e18e3b_9.0.21022.8_none_bcb86ed6ac711f91\\msvcr90.dll', 'BINARY'), ('msvcp90.dll', 'C:\\WINDOWS\\WinSxS\\x86_microsoft.vc90.crt_1fc8b3b9a1e18e3b_9.0.21022.8_none_bcb86ed6ac711f91\\msvcp90.dll', 'BINARY'), ('msvcm90.dll', 'C:\\WINDOWS\\WinSxS\\x86_microsoft.vc90.crt_1fc8b3b9a1e18e3b_9.0.21022.8_none_bcb86ed6ac711f91\\msvcm90.dll', 'BINARY'), ('python27.dll', 'C:\\WINDOWS\\system32\\python27.dll', 'BINARY'), ('win32pipe', 'C:\\Python27\\lib\\site-packages\\win32\\win32pipe.pyd', 'EXTENSION'), ('select', 'C:\\Python27\\DLLs\\select.pyd', 'EXTENSION'), ('unicodedata', 'C:\\Python27\\DLLs\\unicodedata.pyd', 'EXTENSION'), ('win32api', 'C:\\Python27\\lib\\site-packages\\win32\\win32api.pyd', 'EXTENSION'), ('_hashlib', 'C:\\Python27\\DLLs\\_hashlib.pyd', 'EXTENSION'), ('bz2', 'C:\\Python27\\DLLs\\bz2.pyd', 'EXTENSION'), ('_ssl', 'C:\\Python27\\DLLs\\_ssl.pyd', 'EXTENSION'), ('pyexpat', 'C:\\Python27\\DLLs\\pyexpat.pyd', 'EXTENSION'), ('_socket', 'C:\\Python27\\DLLs\\_socket.pyd', 'EXTENSION'), ('_elementtree', 'C:\\Python27\\DLLs\\_elementtree.pyd', 'EXTENSION'), ('pywintypes27.dll', 'C:\\WINDOWS\\system32\\pywintypes27.dll', 'BINARY'), ('include\\pyconfig.h', 'C:\\Python27\\include\\pyconfig.h', 'DATA')])
